…
|skim_variable     | n_missing| complete_rate|   mean|     sd|     p0|    p25|    p50|    p75|   p100|hist  |
|:-----------------|---------:|-------------:|------:|------:|------:|------:|------:|------:|------:|:-----|
|bill_length_mm    |         2|          0.99|   43.9|   5.46|   32.1|   39.2|   44.5|   48.5|   59.6|▃▇▇▆▁ |
|bill_depth_mm     |         2|          0.99|   17.1|   1.97|   13.1|   15.6|   17.3|   18.7|   21.5|▅▅▇▇▂ |
|flipper_length_mm |         2|          0.99|  200.9|  14.06|  172.0|  190.0|  197.0|  213.0|  231.0|▂▇▃▅▂ |
|body_mass_g       |         2|          0.99| 4201.8| 801.95| 2700.0| 3550.0| 4050.0| 4750.0| 6300.0|▃▇▆▃▂ |
|year              |         0|          1.00| 2008.0|   0.82| 2007.0| 2007.0| 2008.0| 2009.0| 2009.0|▇▁▇▁▇ |

데이터가 크지 않아 인터랙티브 `reactive`, `DT` 패키지를 통해 전체 데이터를 살펴볼 수도 있고,
첫 10개 관측점만 뽑아 일별할 수도 있다.


```
## # A tibble: 10 × 8
##   species island bill_length_mm bill_depth_mm flipper_length_… body_mass_g sex  
##   <fct>   <fct>           <dbl>         <dbl>            <int>       <int> <fct>
## 1 Adelie  Torge…           39.1          18.7              181        3750 male 
## 2 Adelie  Torge…           39.5          17.4              186        3800 fema…
## 3 Adelie  Torge…           40.3          18                195        3250 fema…
## 4 Adelie  Torge…           NA            NA                 NA          NA <NA> 
## 5 Adelie  Torge…           36.7          19.3              193        3450 fema…
## 6 Adelie  Torge…           39.3          20.6              190        3650 male 
## # … with 4 more rows, and 1 more variable: year <int>
```
…
**Variable type: numeric**

|skim_variable | n_missing| complete_rate|     mean|       sd|      p0|      p25|      p50|      p75|     p100|hist  |
|:-------------|---------:|-------------:|--------:|--------:|-------:|--------:|--------:|--------:|--------:|:-----|
|year          |         0|             1| 1.98e+03| 1.73e+01|  1952.0| 1.97e+03| 1.98e+03| 1.99e+03| 2.01e+03|▇▅▅▅▇ |
|lifeExp       |         0|             1| 5.95e+01| 1.29e+01|    23.6| 4.82e+01| 6.07e+01| 7.08e+01| 8.26e+01|▁▆▇▇▇ |
|pop           |         0|             1| 2.96e+07| 1.06e+08| 60011.0| 2.79e+06| 7.02e+06| 1.96e+07| 1.32e+09|▇▁▁▁▁ |
|gdpPercap     |         0|             1| 7.22e+03| 9.86e+03|   241.2| 1.20e+03| 3.53e+03| 9.33e+03| 1.14e+05|▇▁▁▁▁ |

데이터가 크지 않아 인터랙티브 `reactive`, `DT` 패키지를 통해 전체 데이터를 살펴볼 수도 있고,
첫 10개 관측점만 뽑아 일별할 수도 있다.


```
## # A tibble: 10 × 6
##   country     continent  year lifeExp      pop gdpPercap
##   <fct>       <fct>     <int>   <dbl>    <int>     <dbl>
## 1 Afghanistan Asia       1952    28.8  8425333      779.
## 2 Afghanistan Asia       1957    30.3  9240934      821.
## 3 Afghanistan Asia       1962    32.0 10267083      853.
## 4 Afghanistan Asia       1967    34.0 11537966      836.
## 5 Afghanistan Asia       1972    36.1 13079460      740.
## 6 Afghanistan Asia       1977    38.4 14880372      786.
## # … with 4 more rows
```
…
