…
  </div>
  <div class = "col-md-6">
**인덱스 긴 형식 데이터**


```r
relig_income %>% 
  pivot_longer(-religion, names_to="소득", values_to = "사람수")
```

```
## # A tibble: 180 × 3
##   religion 소득    사람수
##   <chr>    <chr>    <dbl>
## 1 Agnostic <$10k       27
## 2 Agnostic $10-20k     34
## 3 Agnostic $20-30k     60
## 4 Agnostic $30-40k     81
## 5 Agnostic $40-50k     76
## 6 Agnostic $50-75k    137
## # … with 174 more rows
```
…
### 접두사(prefix) 제거: `pivot_longer()` {#pivot-longer-example-prefix}

`names_prefix`를 사용해서 `$`, `<$`, `>` 붙은 값을 제거시킬 수 있다.


```r
relig_income %>% 
  pivot_longer(-religion, names_to="소득", 
               values_to = "명수",
               names_prefix = "\\$|<\\$|>")
```

```
## # A tibble: 180 × 3
##   religion 소득    명수
##   <chr>    <chr>  <dbl>
## 1 Agnostic 10k       27
## 2 Agnostic 10-20k    34
## 3 Agnostic 20-30k    60
## 4 Agnostic 30-40k    81
## 5 Agnostic 40-50k    76
## 6 Agnostic 50-75k   137
## # … with 174 more rows
```
…
일단 주간 순위는 어찌해서 만들었지만, 주간 칼럼에 `wk`가 들어 있어 이를 `names_prefix`를 통해 날려버리고 나도 숫자로 되어 있는 문자를 다시 숫자형으로 칼럼 자료형을 바꿔야 한다.


```r
billboard %>% 
  pivot_longer(
    cols = starts_with("wk"), 
    names_to = "주간", 
    values_to = "순위",
    values_drop_na = TRUE
  )
```

```
## # A tibble: 5,307 × 5
##   artist track                   date.entered 주간   순위
##   <chr>  <chr>                   <date>       <chr> <dbl>
## 1 2 Pac  Baby Don't Cry (Keep... 2000-02-26   wk1      87
## 2 2 Pac  Baby Don't Cry (Keep... 2000-02-26   wk2      82
## 3 2 Pac  Baby Don't Cry (Keep... 2000-02-26   wk3      72
## 4 2 Pac  Baby Don't Cry (Keep... 2000-02-26   wk4      77
## 5 2 Pac  Baby Don't Cry (Keep... 2000-02-26   wk5      87
## 6 2 Pac  Baby Don't Cry (Keep... 2000-02-26   wk6      94
## # … with 5,301 more rows
```
…
```r
billboard %>% 
  pivot_longer(
    cols = starts_with("wk"), 
    names_to = "주간", 
    values_to = "순위",
    names_prefix = "wk",
    names_ptypes = list(`주간` = as.character()),
    values_drop_na = TRUE
  )
```

```
## # A tibble: 5,307 × 5
##   artist track                   date.entered 주간   순위
##   <chr>  <chr>                   <date>       <chr> <dbl>
## 1 2 Pac  Baby Don't Cry (Keep... 2000-02-26   1        87
## 2 2 Pac  Baby Don't Cry (Keep... 2000-02-26   2        82
## 3 2 Pac  Baby Don't Cry (Keep... 2000-02-26   3        72
## 4 2 Pac  Baby Don't Cry (Keep... 2000-02-26   4        77
## 5 2 Pac  Baby Don't Cry (Keep... 2000-02-26   5        87
## 6 2 Pac  Baby Don't Cry (Keep... 2000-02-26   6        94
## # … with 5,301 more rows
```
…
```
## # A tibble: 405,440 × 8
##   country iso2  iso3   year diagnosis gender age    count
##   <chr>   <chr> <chr> <int> <chr>     <fct>  <ord>  <int>
## 1 India   IN    IND    2007 sn        m      3544  250051
## 2 India   IN    IND    2007 sn        f      3544  148811
## 3 China   CN    CHN    2013 rel       m      65    124476
## 4 China   CN    CHN    2013 rel       m      5564  112558
## 5 India   IN    IND    2007 ep        m      3544  105825
## 6 India   IN    IND    2007 ep        f      3544  101015
## # … with 405,434 more rows
```
…
```r
family %>% 
  pivot_longer(
    -family, 
    names_to = c(".value", "child"), 
    names_sep = "_", 
    values_drop_na = TRUE
  ) %>% 
  dplyr::mutate(dob = parse_date(dob))
```

```
## # A tibble: 9 × 4
##   family child  dob        gender
##    <int> <chr>  <date>      <int>
## 1      1 child1 1998-11-26      1
## 2      1 child2 2000-01-29      2
## 3      2 child1 1996-06-22      2
## 4      3 child1 2002-07-11      2
## 5      3 child2 2004-04-05      2
## 6      4 child1 2004-10-10      1
## # … with 3 more rows
```
…
  </div>
  <div class = "col-md-6">
**중복칼럼 데이터셋 작업결과**


```r
df %>% 
  pivot_longer(-x, names_to = "name", values_to = "value")
```

```
## # A tibble: 9 × 3
##       x name  value
##   <int> <chr> <int>
## 1     1 y         4
## 2     1 y         5
## 3     1 y         7
## 4     2 y         5
## 5     2 y         6
## 6     2 y         8
## # … with 3 more rows
```
…
</div>

`tidyr::fish_encounters` 패키지에 내장된 `fish_encounters` 데이터셋은 ["Visualizing Fish Encounter Histories", February 3 2018](https://fishsciences.github.io/post/visualizing-fish-encounter-histories/)에 나온 물고기 포획 방류, 재포획 즉, capture-recapture 데이터셋이다. `pivot_wider()` 함수에 `names_from`, `value_from`을 지정하여 데카르트 평면에 좌표로 찍듯이 데이터를 펼친다. 결측값이 생기는 것은 `values_fill`을 사용해서 0으로 채워넣게 되면 결측값도 정리되고 사람이 이해하기 쉬운 데이터로 즉시 일별하여 확인이 가능하다.

<div class = "row">
  <div class = "col-md-4">
**깔끔한 데이터: 인덱스 긴 형식**


```r
fish_encounters
```

```
## # A tibble: 114 × 3
##   fish  station  seen
##   <fct> <fct>   <int>
## 1 4842  Release     1
## 2 4842  I80_1       1
## 3 4842  Lisbon      1
## 4 4842  Rstr        1
## 5 4842  Base_TD     1
## 6 4842  BCE         1
## # … with 108 more rows
```
  </div>
  <div class = "col-md-8">
**요약표 형태 데이터**


```r
fish_encounters %>% 
  pivot_wider(names_from = station, 
              values_from = seen,
              values_fill = list(seen = 0)) %>% 
  head(10)
```

```
## # A tibble: 10 × 12
##   fish  Release I80_1 Lisbon  Rstr Base_TD   BCE   BCW  BCE2  BCW2   MAE   MAW
##   <fct>   <int> <int>  <int> <int>   <int> <int> <int> <int> <int> <int> <int>
## 1 4842        1     1      1     1       1     1     1     1     1     1     1
## 2 4843        1     1      1     1       1     1     1     1     1     1     1
## 3 4844        1     1      1     1       1     1     1     1     1     1     1
## 4 4845        1     1      1     1       1     0     0     0     0     0     0
## 5 4847        1     1      1     0       0     0     0     0     0     0     0
## 6 4848        1     1      1     1       0     0     0     0     0     0     0
## # … with 4 more rows
```
…
### 칼럼에 변수 두개 포함 {#separate-columns}

칼럼 하나에 다수 변수가 포함된 경우를 흔히 발견할 수 있다. `dplyr` 팩키지에는 `starwars` 데이터셋에 등장하는 인물에 대한 인적정보가 담겨있다. 예를 들어, `name` 칼럼은 두 변수가 숨어 있다. 하나는 성(`last name`) 다른 하나는 이름(`first name`)이다. 이를 두개로 쪼개어 두는 것이 Tidy Data를 만든다고 볼 수 있다. 꼭 그런 것은 아니고 경우에 따라 차이가 있지만, 개념적으로 그렇다는 것이다. 상황에 맞춰 유연하게 사용한다. 


```r
starwars_name_df <- dplyr::starwars %>% 
  select(name, species, height, mass) %>% 
  filter(str_detect(species, "Human"))

starwars_name_df
```

```
## # A tibble: 35 × 4
##   name               species height  mass
##   <chr>              <chr>    <int> <dbl>
## 1 Luke Skywalker     Human      172    77
## 2 Darth Vader        Human      202   136
## 3 Leia Organa        Human      150    49
## 4 Owen Lars          Human      178   120
## 5 Beru Whitesun lars Human      165    75
## 6 Biggs Darklighter  Human      183    84
## # … with 29 more rows
```

`separate()` 함수를 사용해서 칼럼을 두개로 쪼갠다. 이런 경우 `sep=` 인자를 통해 구분자를 지정한다. 공백, `;`, `,` 등 문제에 따라 구분자를 달리 사용한다.


```r
starwars_name_df %>% 
  separate(name, into = c("first_name", "last_name"), sep=" ")
```

```
## # A tibble: 35 × 5
##   first_name last_name   species height  mass
##   <chr>      <chr>       <chr>    <int> <dbl>
## 1 Luke       Skywalker   Human      172    77
## 2 Darth      Vader       Human      202   136
## 3 Leia       Organa      Human      150    49
## 4 Owen       Lars        Human      178   120
## 5 Beru       Whitesun    Human      165    75
## 6 Biggs      Darklighter Human      183    84
## # … with 29 more rows
```
…
cocktail_tbl <- cocktail_df %>% 
  group_by(drink) %>% 
  nest() %>% 
  mutate(ingredient_tmp = map(data, function(df) df %>%  select(ingredient) %>% pull) ) %>% 
  mutate(ingredient = map_chr(ingredient_tmp, paste, collapse = ", ")) %>% 
  ungroup 

cocktail_tbl %>% 
  select(drink, ingredient)
```

```
## # A tibble: 546 × 2
##   drink                                ingredient                               
##   <chr>                                <chr>                                    
## 1 '57 Chevy with a White License Plate Creme de Cacao, Vodka                    
## 2 1-900-FUK-MEUP                       Absolut Kurant, Grand Marnier, Chambord …
## 3 110 in the shade                     Lager, Tequila                           
## 4 151 Florida Bushwacker               Malibu rum, Light rum, 151 proof rum, Da…
## 5 155 Belmont                          Dark rum, Light rum, Vodka, Orange juice 
## 6 24k nightmare                        Goldschlager, Jägermeister, Rumple Minze…
## # … with 540 more rows
```

먼저 `stringr` 팩키지 `str_split()` 함수로 `ingredient` 칼럼을 `, `을 구분자로 삼아 쪼갠 후에 list-column 형태 칼럼(`ingredient_lc`)으로 저장시킨다. 그리고 나서 `unnest()` 함수로 중첩된 것을 풀게 되면 다음과 같은 티블 데이터프레임이 되어 Tidy Data로 변환된다.


```r
cocktails_tbl <- cocktail_tbl %>% 
  select(drink, ingredient) %>% 
  mutate(ingredient_lc = str_split(ingredient, ", ")) %>% 
  unnest(ingredient_lc)

cocktails_tbl
```

```
## # A tibble: 2,104 × 3
##   drink                                ingredient                  ingredient_lc
##   <chr>                                <chr>                       <chr>        
## 1 '57 Chevy with a White License Plate Creme de Cacao, Vodka       Creme de Cac…
## 2 '57 Chevy with a White License Plate Creme de Cacao, Vodka       Vodka        
## 3 1-900-FUK-MEUP                       Absolut Kurant, Grand Marn… Absolut Kura…
## 4 1-900-FUK-MEUP                       Absolut Kurant, Grand Marn… Grand Marnier
## 5 1-900-FUK-MEUP                       Absolut Kurant, Grand Marn… Chambord ras…
## 6 1-900-FUK-MEUP                       Absolut Kurant, Grand Marn… Midori melon…
## # … with 2,098 more rows
```

자, 이제 깔끔한 데이터의 힘을 느껴보자. 칵테일 중에 가장 다양한 재료가 포함된 칵테일은 무엇인가? 라는 질문에 단순한 `dplyr` 동사로 확인이 바로 가능하다.


```r
cocktails_tbl %>% 
  group_by(drink) %>% 
  summarise(num_ingredients = n()) %>% 
  arrange(desc(num_ingredients))
```

```
## # A tibble: 546 × 2
##   drink                  num_ingredients
##   <chr>                            <int>
## 1 Angelica Liqueur                    12
## 2 Amaretto Liqueur                    11
## 3 Egg Nog #4                          11
## 4 Arizona Twister                      9
## 5 1-900-FUK-MEUP                       8
## 6 151 Florida Bushwacker               8
## # … with 540 more rows
```

### `separate_rows()` 함수로 빠르게 {#separete-rows-quickly}

상기 과정이 다소 많은 동사를 조합해서 결과를 도출하고 있다고 생각된다면 `separate_rows()` 함수를 사용해서 깔끔한 데이터를 만든 후에 `count` 함수와 `sort = TRUE`를 활용하여 동일한 작업을 간단히 마무리 할 수 있다.


```r
cocktail_tbl %>% 
  separate_rows(ingredient, sep = ", ") %>% 
  count(drink, sort = TRUE)
```

```
## # A tibble: 546 × 2
##   drink                      n
##   <chr>                  <int>
## 1 Angelica Liqueur          12
## 2 Amaretto Liqueur          11
## 3 Egg Nog #4                11
## 4 Arizona Twister            9
## 5 1-900-FUK-MEUP             8
## 6 151 Florida Bushwacker     8
## # … with 540 more rows
```
…
nuclear_trials_df <- nuclear_raw %>% 
  janitor::clean_names() %>% 
  mutate(datetime = lubridate::parse_date_time(datetime, "%m/%d/%Y %H:%M:%S %p")) %>% 
  mutate(연도 = year(datetime)) %>% 
  count(country, 연도, name = "핵실험횟수") %>% 
  rename(국가 = country) %>% 
  arrange(연도) %>% 
  filter(연도 <= 1954)

nuclear_trials_df 
```

```
## # A tibble: 13 × 3
##   국가    연도 핵실험횟수
##   <chr>  <dbl>      <int>
## 1 USA     1945          3
## 2 USA     1946          2
## 3 USA     1948          3
## 4 Russia  1949          1
## 5 Russia  1951          2
## 6 USA     1951         16
## # … with 7 more rows
```
…
```r
country_year_tbl <- expand_grid(국가 = c("USA", "Russia", "England"),
                               연도 = seq(1945, 1954, 1))

nuclear_tbl <- country_year_tbl %>% 
  left_join(nuclear_trials_df)

nuclear_tbl
```

```
## # A tibble: 30 × 3
##   국가   연도 핵실험횟수
##   <chr> <dbl>      <int>
## 1 USA    1945          3
## 2 USA    1946          2
## 3 USA    1947         NA
## 4 USA    1948          3
## 5 USA    1949         NA
## 6 USA    1950         NA
## # … with 24 more rows
```
### 결측값 치환: `replace_na()` {#expand-grid-comes-in-replace_na}

결측값을 특정 값으로 채워 넣고자 하는 경우 `replace_na()` 함수를 사용한다.
먼저 `replace_na()` 함수를 사용해서 `n_bombs` 변수에 `NA` 결측값을 0으로 채워넣는다.
다른 국가명이나 연도에 결측값이 있는 경우 동일하게 변수명을 지정하고 결측값을 지정하여 해결한다.


```r
nuclear_tbl %>% 
  replace_na(list(핵실험횟수 = 0,
                  연도 = 1945))
```

```
## # A tibble: 30 × 3
##   국가   연도 핵실험횟수
##   <chr> <dbl>      <int>
## 1 USA    1945          3
## 2 USA    1946          2
## 3 USA    1947          0
## 4 USA    1948          3
## 5 USA    1949          0
## 6 USA    1950          0
## # … with 24 more rows
```


### 결측값 제거: `drop_na()` {#expand-grid-comes-in-drop}

다른 것 다 모르겠고 데이터프레임에 결측값이 있으면 안되기 때문에 그냥 제거한다.
이럴 때 사용하는 함수가 `drop_na()`다.


```r
nuclear_tbl %>% 
  drop_na(핵실험횟수)
```

```
## # A tibble: 13 × 3
##   국가   연도 핵실험횟수
##   <chr> <dbl>      <int>
## 1 USA    1945          3
## 2 USA    1946          2
## 3 USA    1948          3
## 4 USA    1951         16
## 5 USA    1952         10
## 6 USA    1953         11
## # … with 7 more rows
```
