7 . 준비된 데이터 | 데이터 시각화
…
데이터가 크지 않아 인터랙티브 reactive, DT 패키지를 통해 전체 데이터를 살펴볼 수도 있고,
첫 10개 관측점만 뽑아 일별할 수도 있다.

## # A tibble: 10 × 8
##   species island bill_length_mm bill_depth_mm flipper_length_… body_mass_g sex  
##   <fct>   <fct>           <dbl>         <dbl>            <int>       <int> <fct>
## 1 Adelie  Torge…           39.1          18.7              181        3750 male 
## 2 Adelie  Torge…           39.5          17.4              186        3800 fema…
## 3 Adelie  Torge…           40.3          18                195        3250 fema…
## 4 Adelie  Torge…           NA            NA                 NA          NA <NA> 
## 5 Adelie  Torge…           36.7          19.3              193        3450 fema…
## 6 Adelie  Torge…           39.3          20.6              190        3650 male 
## # … with 4 more rows, and 1 more variable: year <int>
…
데이터가 크지 않아 인터랙티브 reactive, DT 패키지를 통해 전체 데이터를 살펴볼 수도 있고,
첫 10개 관측점만 뽑아 일별할 수도 있다.

## # A tibble: 10 × 6
##   country     continent  year lifeExp      pop gdpPercap
##   <fct>       <fct>     <int>   <dbl>    <int>     <dbl>
## 1 Afghanistan Asia       1952    28.8  8425333      779.
## 2 Afghanistan Asia       1957    30.3  9240934      821.
## 3 Afghanistan Asia       1962    32.0 10267083      853.
## 4 Afghanistan Asia       1967    34.0 11537966      836.
## 5 Afghanistan Asia       1972    36.1 13079460      740.
## 6 Afghanistan Asia       1977    38.4 14880372      786.
## # … with 4 more rows
…
