6 . 깔끔한 데이터 | 데이터 시각화
…
## # A tibble: 6 × 11
##   religion  `<$10k` `$10-20k` `$20-30k` `$30-40k` `$40-50k` `$50-75k` `$75-100k`
##   <chr>       <dbl>     <dbl>     <dbl>     <dbl>     <dbl>     <dbl>      <dbl>
## 1 Agnostic       27        34        60        81        76       137        122
## 2 Atheist        12        27        37        52        35        70         73
## 3 Buddhist       27        21        30        34        33        58         62
## 4 Catholic      418       617       732       670       638      1116        949
## 5 Don’t k…       15        14        15        11        10        35         21
## 6 Evangeli…     575       869      1064       982       881      1486        949
## # … with 3 more variables: `$100-150k` <dbl>, `>150k` <dbl>,
## #   `Don't know/refused` <dbl>

인덱스 긴 형식 데이터

## # A tibble: 180 × 3
##   religion 소득     명수
##   <chr>    <chr>   <dbl>
## 1 Agnostic <$10k      27
## 2 Agnostic $10-20k    34
## 3 Agnostic $20-30k    60
## 4 Agnostic $30-40k    81
## 5 Agnostic $40-50k    76
## 6 Agnostic $50-75k   137
## # … with 174 more rows

6.7.2 접두사(prefix) 제거: pivot_longer()

names_prefix를 사용해서 $, <$, > 붙은 값을 제거시킬 수 있다.

## # A tibble: 180 × 3
##   religion 소득    명수
##   <chr>    <chr>  <dbl>
## 1 Agnostic 10k       27
## 2 Agnostic 10-20k    34
## 3 Agnostic 20-30k    60
## 4 Agnostic 30-40k    81
## 5 Agnostic 40-50k    76
## 6 Agnostic 50-75k   137
## # … with 174 more rows

6.7.3 자료형 변환: pivot_longer()

빌보드 원본 데이터: 자료변환 전

일단 주간 순위는 어찌해서 만들었지만, 주간 칼럼에 wk가 들어 있어 이를 names_prefix를 통해 날려버리고 나도 숫자로 되어 있는 문자를 다시 숫자형으로 칼럼 자료형을 바꿔야 한다.

## # A tibble: 5,307 × 5
##   artist track                   date.entered 주간   순위
##   <chr>  <chr>                   <date>       <chr> <dbl>
## 1 2 Pac  Baby Don't Cry (Keep... 2000-02-26   wk1      87
## 2 2 Pac  Baby Don't Cry (Keep... 2000-02-26   wk2      82
## 3 2 Pac  Baby Don't Cry (Keep... 2000-02-26   wk3      72
## 4 2 Pac  Baby Don't Cry (Keep... 2000-02-26   wk4      77
## 5 2 Pac  Baby Don't Cry (Keep... 2000-02-26   wk5      87
## 6 2 Pac  Baby Don't Cry (Keep... 2000-02-26   wk6      94
## # … with 5,301 more rows

빌보드 원본 데이터: 자료변환 후

## # A tibble: 5,307 × 5
##   artist track                   date.entered 주간   순위
##   <chr>  <chr>                   <date>       <chr> <dbl>
## 1 2 Pac  Baby Don't Cry (Keep... 2000-02-26   1        87
## 2 2 Pac  Baby Don't Cry (Keep... 2000-02-26   2        82
## 3 2 Pac  Baby Don't Cry (Keep... 2000-02-26   3        72
## 4 2 Pac  Baby Don't Cry (Keep... 2000-02-26   4        77
## 5 2 Pac  Baby Don't Cry (Keep... 2000-02-26   5        87
## 6 2 Pac  Baby Don't Cry (Keep... 2000-02-26   6        94
## # … with 5,301 more rows
…
who 데이터셋과 같이 다수 칼럼이 포함된 경우가 있을 수 있다. 이런 경우 names_pattern 정규표현식을 적용시켜 변수를 추출할 수 있다. 먼저 who 데이터셋을 살펴보자.

new_/new 접두어

sp/rel/sp/ep 진단 구분

m/f 성별

014/1524/2535/3544/4554/65 연령대

먼저, country, iso2, iso3, year 4개 변수는 정리되어 있어 그대로 두고, 나머지 변수를 dplyr::select 문법에 맞춰 선택하고 이를 변경시킨다.
names_to로 변수명 3개를 지정하고, new_/new 접두어는 고정되어 names_pattern에서 정규표현식으로 패턴을 적의한다. 이와 더불어 names_ptypes에서 자료형도 함께 지정한다.

## # A tibble: 405,440 × 8
##   country     iso2  iso3   year diagnosis gender age   count
##   <chr>       <chr> <chr> <int> <chr>     <fct>  <ord> <int>
## 1 Afghanistan AF    AFG    1980 sp        m      014      NA
## 2 Afghanistan AF    AFG    1980 sp        m      1524     NA
## 3 Afghanistan AF    AFG    1980 sp        m      2534     NA
## 4 Afghanistan AF    AFG    1980 sp        m      3544     NA
## 5 Afghanistan AF    AFG    1980 sp        m      4554     NA
## 6 Afghanistan AF    AFG    1980 sp        m      5564     NA
## # … with 405,434 more rows
…
한행에 관측점이 다수 있는 재미있는 데이터도 있다.
즉, 첫번째 가정에 아이가 2명 있는데 첫째 아이 생일과 성별, 둘째 아이 생일과 성별이 한 행에 놓여있는 경우가 이에 해당된다.

## # A tibble: 5 × 5
##   family dob_child1 dob_child2 gender_child1 gender_child2
##    <int> <chr>      <chr>              <int>         <int>
## 1      1 1998-11-26 2000-01-29             1             2
## 2      2 1996-06-22 <NA>                   2            NA
## 3      3 2002-07-11 2004-04-05             2             2
## 4      4 2004-10-10 2009-08-27             1             1
## 5      5 2000-12-05 2005-02-28             2             1

이를 원하는 이름으로 변경시키기 위해서 names_to=에 .value라는 특수명칭을 사용하여 한 관측점에 다수 관측점 정보가 포함된 문제를 해결한다.

## # A tibble: 9 × 4
##   family child  dob        gender
##    <int> <chr>  <date>      <int>
## 1      1 child1 1998-11-26      1
## 2      1 child2 2000-01-29      2
## 3      2 child1 1996-06-22      2
## 4      3 child1 2002-07-11      2
## 5      3 child2 2004-04-05      2
## 6      4 child1 2004-10-10      1
## # … with 3 more rows
…
종복된 칼럼명이 존재하는 경우 작업하기 까다로운데… pivot_longer()에서 자동으로 칼럼을 추가시켜 문제를 풀어준다.

중복칼럼 데이터셋

## # A tibble: 3 × 4
##       x     y     y     y
##   <int> <int> <int> <int>
## 1     1     4     5     7
## 2     2     5     6     8
## 3     3     6     7     9

중복칼럼 데이터셋 작업결과

## # A tibble: 9 × 3
##       x name  value
##   <int> <chr> <int>
## 1     1 y         4
## 2     1 y         5
## 3     1 y         7
## 4     2 y         5
## 5     2 y         6
## 6     2 y         8
## # … with 3 more rows

6.8 인덱스 → 데카르트 평면: pivot_wider()

pivot_wider()는 깔끔한 데이터를 만드는데 그다지 흔한 경우는 아니지만, 요약표를 만드거나 할 때 종종 사용되고, pivot_longer()와 정반대라고 보면 된다.

names_from은 칼럼값을 지정하는 칼럼

values-from은 값(value)을 지정하는 칼럼

“Visualizing Fish Encounter Histories”, February 3 2018에 나온 물고기 포획 방류, 재포획 즉, capture-recapture 데이터셋으로 볼 수 있다.
pivot_wider() 함수에 names_from, value_from을 지정하여 데카르트 평면에 좌표로 찍듯이 데이터를 펼친다. 결측값이 생기는 것은 values_fill을 사용해서 0으로 채워넣는다.

깔끔한 데이터: 인덱스 긴 형식

## # A tibble: 114 × 3
##   fish  station  seen
##   <fct> <fct>   <int>
## 1 4842  Release     1
## 2 4842  I80_1       1
## 3 4842  Lisbon      1
## 4 4842  Rstr        1
## 5 4842  Base_TD     1
## 6 4842  BCE         1
## # … with 108 more rows

요약표 형태 데이터

## # A tibble: 10 × 12
##   fish  Release I80_1 Lisbon  Rstr Base_TD   BCE   BCW  BCE2  BCW2   MAE   MAW
##   <fct>   <int> <int>  <int> <int>   <int> <int> <int> <int> <int> <int> <int>
## 1 4842        1     1      1     1       1     1     1     1     1     1     1
## 2 4843        1     1      1     1       1     1     1     1     1     1     1
## 3 4844        1     1      1     1       1     1     1     1     1     1     1
## 4 4845        1     1      1     1       1     0     0     0     0     0     0
## 5 4847        1     1      1     0       0     0     0     0     0     0     0
## 6 4848        1     1      1     1       0     0     0     0     0     0     0
## # … with 4 more rows
…
## # A tibble: 3 × 3
##   tension     A     B
##   <fct>   <dbl> <dbl>
## 1 L          70    44
## 2 M          36    42
## 3 H          43    28

6.9 separate()와 unite()

6.9.1 칼럼에 변수 두개 포함

칼럼 하나에 다수 변수가 포함된 경우를 흔히 발견할 수 있다. dplyr 팩키지에는 starwars 데이터셋에 등장하는 인물에 대한 인적정보가 담겨있다. 예를 들어, name 칼럼은 두 변수가 숨어 있다. 하나는 성(last name) 다른 하나는 이름(first name)이다. 이를 두개로 쪼개어 두는 것이 Tidy Data를 만든다고 볼 수 있다. 꼭 그런 것은 아니고 경우에 따라 차이가 있지만, 개념적으로 그렇다는 것이다. 상황에 맞춰 유연하게 사용한다.

## # A tibble: 35 × 4
##   name               species height  mass
##   <chr>              <chr>    <int> <dbl>
## 1 Luke Skywalker     Human      172    77
## 2 Darth Vader        Human      202   136
## 3 Leia Organa        Human      150    49
## 4 Owen Lars          Human      178   120
## 5 Beru Whitesun lars Human      165    75
## 6 Biggs Darklighter  Human      183    84
## # … with 29 more rows

separate() 함수를 사용해서 칼럼을 두개로 쪼갠다. 이런 경우 sep= 인자를 통해 구분자를 지정한다. 공백, ;, , 등 문제에 따라 구분자를 달리 사용한다.

## # A tibble: 35 × 5
##   first_name last_name   species height  mass
##   <chr>      <chr>       <chr>    <int> <dbl>
## 1 Luke       Skywalker   Human      172    77
## 2 Darth      Vader       Human      202   136
## 3 Leia       Organa      Human      150    49
## 4 Owen       Lars        Human      178   120
## 5 Beru       Whitesun    Human      165    75
## 6 Biggs      Darklighter Human      183    84
## # … with 29 more rows

6.9.2 칼럼에 변수 다수 포함

TidyTuesday에서 나왔던 칵테일 데이터를 보게 되면 각 칵테일을 제작하는데 필요한 재표가 ingredient 칼럼 안에 콤마(,)로 묶여있다. 이런 데이터는 절대로 Tidy한 데이터가 아니라서 적절한 조치가 필요하다.

## 
##  Downloading file 1 of 2: `cocktails.csv`
##  Downloading file 2 of 2: `boston_cocktails.csv`

## # A tibble: 546 × 2
##   drink                                ingredient                               
##   <chr>                                <chr>                                    
## 1 '57 Chevy with a White License Plate Creme de Cacao, Vodka                    
## 2 1-900-FUK-MEUP                       Absolut Kurant, Grand Marnier, Chambord …
## 3 110 in the shade                     Lager, Tequila                           
## 4 151 Florida Bushwacker               Malibu rum, Light rum, 151 proof rum, Da…
## 5 155 Belmont                          Dark rum, Light rum, Vodka, Orange juice 
## 6 24k nightmare                        Goldschlager, Jägermeister, Rumple Minze…
## # … with 540 more rows

먼저 stringr 팩키지 str_split() 함수로 ingredient 칼럼을 ,을 구분자로 삼아 쪼갠 후에 list-column 형태 칼럼(ingredient_lc)으로 저장시킨다. 그리고 나서 unnest() 함수로 중첩된 것을 풀게 되면 다음과 같은 티블 데이터프레임이 되어 Tidy Data로 변환된다.

## # A tibble: 2,104 × 3
##   drink                                ingredient                  ingredient_lc
##   <chr>                                <chr>                       <chr>        
## 1 '57 Chevy with a White License Plate Creme de Cacao, Vodka       Creme de Cac…
## 2 '57 Chevy with a White License Plate Creme de Cacao, Vodka       Vodka        
## 3 1-900-FUK-MEUP                       Absolut Kurant, Grand Marn… Absolut Kura…
## 4 1-900-FUK-MEUP                       Absolut Kurant, Grand Marn… Grand Marnier
## 5 1-900-FUK-MEUP                       Absolut Kurant, Grand Marn… Chambord ras…
## 6 1-900-FUK-MEUP                       Absolut Kurant, Grand Marn… Midori melon…
## # … with 2,098 more rows

자, 이제 깔끔한 데이터의 힘을 느껴보자. 칵테일 중에 가장 다양한 재료가 포함된 칵테일은 무엇인가? 라는 질문에 단순한 dplyr 동사로 확인이 바로 가능하다.

## # A tibble: 546 × 2
##   drink                  num_ingredients
##   <chr>                            <int>
## 1 Angelica Liqueur                    12
## 2 Amaretto Liqueur                    11
## 3 Egg Nog #4                          11
## 4 Arizona Twister                      9
## 5 1-900-FUK-MEUP                       8
## 6 151 Florida Bushwacker               8
## # … with 540 more rows

6.9.3 separate_rows() 함수로 빠르게

상기 과정이 다소 많은 동사를 조합해서 결과를 도출하고 있다고 생각된다면 separate_rows() 함수를 사용해서 깔끔한 데이터를 만든 후에 count 함수와 sort = TRUE를 활용하여 동일한 작업을 간단히 마무리 할 수 있다.

## # A tibble: 546 × 2
##   drink                      n
##   <chr>                  <int>
## 1 Angelica Liqueur          12
## 2 Amaretto Liqueur          11
## 3 Egg Nog #4                11
## 4 Arizona Twister            9
## 5 1-900-FUK-MEUP             8
## 6 151 Florida Bushwacker     8
## # … with 540 more rows

6.10 결측 데이터

data.world Nuclear Weapon Explosions BY THOMAS DRÄBING 웹사이트에서 핵폭탄 실험 데이터를 다운로드 받을 수 있다. 데이터는 완벽하지만 논리상 문제가 생긴다. 즉 1945년 이후 데이터를 보자면 결측값이 보인다.
확인이 안된 것 한건 빼면 7개국이 핵폭탄 실험을 한 것으로 나오는데 1945년에는 아무런 기록이 없다. 데이터프레임에는 정상인 깔끔한 데이터지만 사실 1945년 0 건이 예를 들어 중국이나 러시아가 포함되어 있는 것이 맞다.

## # A tibble: 13 × 3
##   country  year n_bombs
##   <chr>   <dbl>   <int>
## 1 USA      1945       3
## 2 USA      1946       2
## 3 USA      1948       3
## 4 Russia   1949       1
## 5 Russia   1951       2
## 6 USA      1951      16
## # … with 7 more rows

6.10.1 expand_grid()

상기와 같은 문제를 해결하기 위해 expand_grid() 함수를 사용해서 핵실험을 수행한 모든 국가에 대해 해당 년도를 모두 생성할 필요가 있다.
3개 국가에 대해 10년을 expand_grid() 함수로 조합하게 되면 30개 관측점이 생기는데 미국이 핵실험을 하지 않은 1947년의 경우 NA 값이 생긴다. 이를 채워주어야 한다.

## # A tibble: 30 × 3
##   country  year n_bombs
##   <chr>   <dbl>   <int>
## 1 USA      1945       3
## 2 USA      1946       2
## 3 USA      1947      NA
## 4 USA      1948       3
## 5 USA      1949      NA
## 6 USA      1950      NA
## # … with 24 more rows

6.10.2 replace_na()

앞서 expand_grid() 함수로 생성된 Tidy Data를 염두에 두고 이를 left_join() 함수와 조인을 걸어 나중에 치환시킬 데이터프레임을 사전 제작한다.
결측값을 특정 값으로 채워 넣고자 하는 경우 replace_na() 함수를 사용한다.
먼저 replace_na() 함수를 사용해서 n_bombs 변수에 NA 결측값을 0으로 채워넣는다.

## # A tibble: 30 × 3
##   country  year n_bombs
##   <chr>   <dbl>   <int>
## 1 USA      1945       3
## 2 USA      1946       2
## 3 USA      1947       0
## 4 USA      1948       3
## 5 USA      1949       0
## 6 USA      1950       0
## # … with 24 more rows

6.10.3 fill()

또 다른 사례로 발생되는 결측값의 유형으로 위와 같이 특정 결측값으로 채워넣는 대신 누적합과 같은 경우 이전 값이나 이후 값을 참조하여 채워넣는 것이 더 유의미한 결측값을 채워넣는 사례가 된다.

## # A tibble: 13 × 4
## # Groups:   country [3]
##   country  year n_bombs cumsum_bombs
##   <chr>   <dbl>   <int>        <int>
## 1 England  1952       1            1
## 2 England  1953       2            3
## 3 Russia   1949       1            1
## 4 Russia   1951       2            3
## 5 Russia   1953       5            8
## 6 Russia   1954      10           18
## # … with 7 more rows

연도별 누적 핵폭탄 투하 실험 횟수는 fill() 함수에 .direction = "down"을 넣어 방향도 지정하여 의미있는 결측값 치완방식이 되도록 코드를 작업한다.

## # A tibble: 30 × 4
##   country  year n_bombs cumsum_bombs
##   <chr>   <dbl>   <int>        <int>
## 1 USA      1945       3            3
## 2 USA      1946       2            5
## 3 USA      1947       0            5
## 4 USA      1948       3            8
## 5 USA      1949       0            8
## 6 USA      1950       0            8
## # … with 24 more rows

6.10.4 drop_na()

다른 것 다 모르겠고 데이터프레임에 결측값이 있으면 안되기 때문에 그냥 제거한다.
이럴 때 사용하는 함수가 drop_na()다.

## # A tibble: 13 × 3
##   country  year n_bombs
##   <chr>   <dbl>   <int>
## 1 USA      1945       3
## 2 USA      1946       2
## 3 USA      1948       3
## 4 USA      1951      16
## 5 USA      1952      10
## 6 USA      1953      11
## # … with 7 more rows
…
